{
  "message": "connect EHOSTUNREACH 10.133.134.90:80",
  "name": "Error",
  "stack": "Error: connect EHOSTUNREACH 10.133.134.90:80\n    at TCPConnectWrap.afterConnect [as oncomplete] (net.js:1061:14)",
  "config": {
    "url": "http://10.133.134.90/screens/api/v1/screens/images?screen_id=48",
    "method": "get",
    "headers": {
      "Accept": "application/json, text/plain, */*",
      "User-Agent": "axios/0.19.0"
    },
    "transformRequest": [
      null
    ],
    "transformResponse": [
      null
    ],
    "timeout": 0,
    "xsrfCookieName": "XSRF-TOKEN",
    "xsrfHeaderName": "X-XSRF-TOKEN",
    "maxContentLength": -1
  },
  "code": "EHOSTUNREACH"
}